\relax 
\select@language{norsk}
\@writefile{toc}{\select@language{norsk}}
\@writefile{lof}{\select@language{norsk}}
\@writefile{lot}{\select@language{norsk}}
\@writefile{toc}{\contentsline {section}{\numberline {1}Delprosjekt I (Tidligere innlevert som egen rapport)}{3}}
\@writefile{toc}{\contentsline {subsection}{\numberline {1.1}Kort beskrivelse}{3}}
\newlabel{likn1}{{1}{3}}
\newlabel{likn2}{{2}{3}}
\newlabel{likn3}{{3}{3}}
\newlabel{likn4}{{4}{3}}
\newlabel{likn5}{{5}{3}}
\@writefile{lof}{\contentsline {figure}{\numberline {1}{\ignorespaces \textit  {Forhold mellom} [$SO_{4}^{2-}$] \textit  {og} [$H^{+}$].}}{4}}
\newlabel{fig:dp1H}{{1}{4}}
\newlabel{likn6}{{6}{4}}
\newlabel{likn7}{{7}{4}}
\newlabel{likn8}{{8}{4}}
\@writefile{toc}{\contentsline {subsection}{\numberline {1.2}Grafiske fremstillinger av simuleringsresultatene}{4}}
\@writefile{lof}{\contentsline {figure}{\numberline {2}{\ignorespaces \textit  {Forhold mellom} [$SO_{4}^{2-}$] \textit  {og} [$Ca^{2+}$].}}{5}}
\newlabel{fig:dp1Ca}{{2}{5}}
\@writefile{lof}{\contentsline {figure}{\numberline {3}{\ignorespaces \textit  {Forhold mellom} [$SO_{4}^{2-}$] \textit  {og} [$HCO_{3}^{-}$].}}{5}}
\newlabel{fig:dp1HCo}{{3}{5}}
\@writefile{lof}{\contentsline {figure}{\numberline {4}{\ignorespaces \textit  {Forhold mellom} [$SO_{4}^{2-}$] \textit  {og} [$Al^{3+}$].}}{6}}
\newlabel{fig:dp1Al}{{4}{6}}
\@writefile{toc}{\contentsline {subsection}{\numberline {1.3}Prosedyren newton}{6}}
\@writefile{lof}{\contentsline {figure}{\numberline {5}{\ignorespaces \textit  {Spline-kurve for temperatur.}}}{8}}
\newlabel{fig:temp}{{5}{8}}
\@writefile{toc}{\contentsline {section}{\numberline {2}Interpolasjon av m\IeC {\aa }ledata med naturlige kubiske splines(Delprosjekt II)}{8}}
\@writefile{toc}{\contentsline {subsection}{\numberline {2.1}Implementering}{8}}
