\select@language {norsk}
\contentsline {figure}{\numberline {1}{\ignorespaces \textit {Forhold mellom} [$SO_{4}^{2-}$] \textit {og} [$H^{+}$].}}{5}
\contentsline {figure}{\numberline {2}{\ignorespaces \textit {Forhold mellom} [$SO_{4}^{2-}$] \textit {og} [$Ca^{2+}$].}}{6}
\contentsline {figure}{\numberline {3}{\ignorespaces \textit {Forhold mellom} [$SO_{4}^{2-}$] \textit {og} [$HCO_{3}^{-}$].}}{6}
\contentsline {figure}{\numberline {4}{\ignorespaces \textit {Forhold mellom} [$SO_{4}^{2-}$] \textit {og} [$Al^{3+}$].}}{7}
\contentsline {figure}{\numberline {5}{\ignorespaces \textit {Spline-kurve for temperatur.}}}{9}
\contentsline {figure}{\numberline {6}{\ignorespaces \textit {Spline-kurve for nedb\IeC {\o }r.}}}{10}
\contentsline {figure}{\numberline {7}{\ignorespaces \textit {Splinetest, n=15.}}}{13}
\contentsline {figure}{\numberline {8}{\ignorespaces \textit {Splinetest, n=20.}}}{14}
\contentsline {figure}{\numberline {9}{\ignorespaces \textit {Splinetest, n=30.}}}{14}
\contentsline {figure}{\numberline {10}{\ignorespaces \textit {Observert og beregnet avrenning}}}{18}
\contentsline {figure}{\numberline {11}{\ignorespaces \textit {Simulert vannstand i A reservoaret.}}}{19}
\contentsline {figure}{\numberline {12}{\ignorespaces \textit {Simulert vannstand i B reservoaret.}}}{19}
\contentsline {figure}{\numberline {13}{\ignorespaces \textit {Simulert konsentrasjon av} [$SO_{4}^{2-}$] \textit {i avrenningen.}}}{20}
\contentsline {figure}{\numberline {14}{\ignorespaces \textit {Simulert massebalanse for vann.}}}{20}
\contentsline {figure}{\numberline {15}{\ignorespaces \textit {Simulert massebalanse for sulfat.}}}{21}
\contentsline {figure}{\numberline {16}{\ignorespaces \textit {Simulert} [$H^{+}$] \textit {i reservoar A.}}}{22}
\contentsline {figure}{\numberline {17}{\ignorespaces \textit {Simulert} [$H^{+}$] \textit {i reservoar B.}}}{22}
\contentsline {figure}{\numberline {18}{\ignorespaces \textit {Simulert} [$Ca^{2+}$] \textit {i avrenningen, CQCa.}}}{23}
\contentsline {figure}{\numberline {19}{\ignorespaces \textit {Simulert} [$H^{+}$] \textit {i avrenningen, Q.}}}{24}
\contentsline {figure}{\numberline {20}{\ignorespaces \textit {Simulert} [$Al^{3+}$] \textit {i avrenningen, Q.}}}{24}
\contentsline {figure}{\numberline {21}{\ignorespaces \textit {Simulert} [$HCO^{}_{3}$] \textit {i avrenningen, Q.}}}{25}
\contentsline {figure}{\numberline {22}{\ignorespaces \textit {Elektron\IeC {\o }ytralitetsprinsippet i avrenningen, Q.}}}{26}
\contentsline {figure}{\numberline {23}{\ignorespaces \textit {Differansen mellom observert og beregnet avrenning plottet mot observert avrenning.}}}{27}
\contentsline {figure}{\numberline {24}{\ignorespaces \textit {Prediktert} [$H^+$] \textit {i avrenningen n\IeC {\aa }r sulfatkonsentrasjonen er det dobbelte av dagens niv\IeC {\aa } i nedb\IeC {\o }ren}.}}{31}
\contentsline {figure}{\numberline {25}{\ignorespaces \textit {Prediktert} [$H^+$] \textit {i avrenningen n\IeC {\aa }r sulfatkonsentrasjonen er halvparten av dagens niv\IeC {\aa } i nedb\IeC {\o }ren}.}}{31}
\contentsline {figure}{\numberline {26}{\ignorespaces \textit {Prediktert} [$H^+$] \textit {i avrenningen}.}}{32}
