PING gatekeeper.dec.com (204.123.2.2): 512 data bytes
520 bytes from 204.123.2.2: icmp_seq=0 ttl=243 time=578.4 ms
520 bytes from 204.123.2.2: icmp_seq=1 ttl=243 time=631.4 ms
520 bytes from 204.123.2.2: icmp_seq=2 ttl=243 time=581.3 ms
520 bytes from 204.123.2.2: icmp_seq=3 ttl=243 time=671.2 ms
520 bytes from 204.123.2.2: icmp_seq=4 ttl=243 time=757.2 ms
520 bytes from 204.123.2.2: icmp_seq=5 ttl=243 time=613.5 ms
520 bytes from 204.123.2.2: icmp_seq=6 ttl=243 time=699.1 ms
520 bytes from 204.123.2.2: icmp_seq=7 ttl=243 time=729.9 ms
520 bytes from 204.123.2.2: icmp_seq=8 ttl=243 time=1357.9 ms
520 bytes from 204.123.2.2: icmp_seq=9 ttl=243 time=847.3 ms
520 bytes from 204.123.2.2: icmp_seq=10 ttl=243 time=569.5 ms
520 bytes from 204.123.2.2: icmp_seq=11 ttl=243 time=581.9 ms
520 bytes from 204.123.2.2: icmp_seq=12 ttl=243 time=600.9 ms
520 bytes from 204.123.2.2: icmp_seq=13 ttl=243 time=895.5 ms
520 bytes from 204.123.2.2: icmp_seq=14 ttl=243 time=862.9 ms
520 bytes from 204.123.2.2: icmp_seq=15 ttl=243 time=1036.6 ms
520 bytes from 204.123.2.2: icmp_seq=16 ttl=243 time=622.6 ms
520 bytes from 204.123.2.2: icmp_seq=17 ttl=243 time=590.9 ms
520 bytes from 204.123.2.2: icmp_seq=18 ttl=243 time=674.4 ms
520 bytes from 204.123.2.2: icmp_seq=19 ttl=243 time=576.1 ms
520 bytes from 204.123.2.2: icmp_seq=21 ttl=243 time=918.0 ms
520 bytes from 204.123.2.2: icmp_seq=22 ttl=243 time=971.5 ms
520 bytes from 204.123.2.2: icmp_seq=23 ttl=243 time=643.8 ms
520 bytes from 204.123.2.2: icmp_seq=24 ttl=243 time=648.4 ms
520 bytes from 204.123.2.2: icmp_seq=25 ttl=243 time=630.2 ms
520 bytes from 204.123.2.2: icmp_seq=26 ttl=243 time=716.0 ms
520 bytes from 204.123.2.2: icmp_seq=27 ttl=243 time=638.3 ms
520 bytes from 204.123.2.2: icmp_seq=28 ttl=243 time=544.2 ms
520 bytes from 204.123.2.2: icmp_seq=29 ttl=243 time=566.6 ms
520 bytes from 204.123.2.2: icmp_seq=30 ttl=243 time=657.1 ms
520 bytes from 204.123.2.2: icmp_seq=31 ttl=243 time=700.6 ms
520 bytes from 204.123.2.2: icmp_seq=32 ttl=243 time=706.9 ms
520 bytes from 204.123.2.2: icmp_seq=33 ttl=243 time=596.8 ms
520 bytes from 204.123.2.2: icmp_seq=34 ttl=243 time=666.6 ms
520 bytes from 204.123.2.2: icmp_seq=35 ttl=243 time=566.6 ms
520 bytes from 204.123.2.2: icmp_seq=36 ttl=243 time=746.5 ms
520 bytes from 204.123.2.2: icmp_seq=37 ttl=243 time=522.5 ms
520 bytes from 204.123.2.2: icmp_seq=38 ttl=243 time=518.8 ms
520 bytes from 204.123.2.2: icmp_seq=39 ttl=243 time=657.1 ms
520 bytes from 204.123.2.2: icmp_seq=40 ttl=243 time=598.6 ms
520 bytes from 204.123.2.2: icmp_seq=41 ttl=243 time=582.2 ms
520 bytes from 204.123.2.2: icmp_seq=42 ttl=243 time=562.8 ms
520 bytes from 204.123.2.2: icmp_seq=44 ttl=243 time=543.3 ms
520 bytes from 204.123.2.2: icmp_seq=46 ttl=243 time=622.3 ms
520 bytes from 204.123.2.2: icmp_seq=47 ttl=243 time=675.8 ms
520 bytes from 204.123.2.2: icmp_seq=48 ttl=243 time=1308.9 ms
520 bytes from 204.123.2.2: icmp_seq=49 ttl=243 time=1028.2 ms
520 bytes from 204.123.2.2: icmp_seq=50 ttl=243 time=1379.1 ms
520 bytes from 204.123.2.2: icmp_seq=51 ttl=243 time=1264.2 ms
520 bytes from 204.123.2.2: icmp_seq=52 ttl=243 time=1381.0 ms
520 bytes from 204.123.2.2: icmp_seq=53 ttl=243 time=1348.5 ms
520 bytes from 204.123.2.2: icmp_seq=54 ttl=243 time=1128.7 ms
520 bytes from 204.123.2.2: icmp_seq=56 ttl=243 time=2123.7 ms
520 bytes from 204.123.2.2: icmp_seq=57 ttl=243 time=1335.5 ms
520 bytes from 204.123.2.2: icmp_seq=58 ttl=243 time=1103.3 ms
520 bytes from 204.123.2.2: icmp_seq=59 ttl=243 time=1166.4 ms
520 bytes from 204.123.2.2: icmp_seq=60 ttl=243 time=1372.1 ms
520 bytes from 204.123.2.2: icmp_seq=61 ttl=243 time=1534.3 ms
520 bytes from 204.123.2.2: icmp_seq=62 ttl=243 time=1293.0 ms
520 bytes from 204.123.2.2: icmp_seq=63 ttl=243 time=1331.4 ms
520 bytes from 204.123.2.2: icmp_seq=64 ttl=243 time=1235.8 ms
520 bytes from 204.123.2.2: icmp_seq=65 ttl=243 time=1317.3 ms
520 bytes from 204.123.2.2: icmp_seq=66 ttl=243 time=709.2 ms
520 bytes from 204.123.2.2: icmp_seq=67 ttl=243 time=491.7 ms
520 bytes from 204.123.2.2: icmp_seq=68 ttl=243 time=660.8 ms
520 bytes from 204.123.2.2: icmp_seq=69 ttl=243 time=595.5 ms
520 bytes from 204.123.2.2: icmp_seq=71 ttl=243 time=491.7 ms
520 bytes from 204.123.2.2: icmp_seq=72 ttl=243 time=578.4 ms
520 bytes from 204.123.2.2: icmp_seq=73 ttl=243 time=590.8 ms
520 bytes from 204.123.2.2: icmp_seq=74 ttl=243 time=566.7 ms
520 bytes from 204.123.2.2: icmp_seq=75 ttl=243 time=584.7 ms
520 bytes from 204.123.2.2: icmp_seq=76 ttl=243 time=637.6 ms
520 bytes from 204.123.2.2: icmp_seq=77 ttl=243 time=620.2 ms
520 bytes from 204.123.2.2: icmp_seq=78 ttl=243 time=510.2 ms
520 bytes from 204.123.2.2: icmp_seq=79 ttl=243 time=563.0 ms
520 bytes from 204.123.2.2: icmp_seq=80 ttl=243 time=640.5 ms
520 bytes from 204.123.2.2: icmp_seq=81 ttl=243 time=596.0 ms
520 bytes from 204.123.2.2: icmp_seq=82 ttl=243 time=540.7 ms
520 bytes from 204.123.2.2: icmp_seq=83 ttl=243 time=573.0 ms
520 bytes from 204.123.2.2: icmp_seq=84 ttl=243 time=1259.8 ms
520 bytes from 204.123.2.2: icmp_seq=86 ttl=243 time=846.5 ms
520 bytes from 204.123.2.2: icmp_seq=87 ttl=243 time=578.8 ms
520 bytes from 204.123.2.2: icmp_seq=88 ttl=243 time=815.1 ms
520 bytes from 204.123.2.2: icmp_seq=89 ttl=243 time=574.0 ms
520 bytes from 204.123.2.2: icmp_seq=90 ttl=243 time=576.2 ms
520 bytes from 204.123.2.2: icmp_seq=91 ttl=243 time=549.1 ms
520 bytes from 204.123.2.2: icmp_seq=92 ttl=243 time=638.4 ms
520 bytes from 204.123.2.2: icmp_seq=93 ttl=243 time=553.9 ms
520 bytes from 204.123.2.2: icmp_seq=94 ttl=243 time=588.4 ms
520 bytes from 204.123.2.2: icmp_seq=95 ttl=243 time=665.8 ms
520 bytes from 204.123.2.2: icmp_seq=96 ttl=243 time=719.5 ms
520 bytes from 204.123.2.2: icmp_seq=97 ttl=243 time=962.9 ms
520 bytes from 204.123.2.2: icmp_seq=98 ttl=243 time=571.4 ms
520 bytes from 204.123.2.2: icmp_seq=99 ttl=243 time=521.8 ms
520 bytes from 204.123.2.2: icmp_seq=100 ttl=243 time=644.7 ms
520 bytes from 204.123.2.2: icmp_seq=101 ttl=243 time=596.4 ms
520 bytes from 204.123.2.2: icmp_seq=102 ttl=243 time=1138.1 ms
520 bytes from 204.123.2.2: icmp_seq=104 ttl=243 time=592.5 ms
520 bytes from 204.123.2.2: icmp_seq=105 ttl=243 time=929.4 ms
520 bytes from 204.123.2.2: icmp_seq=106 ttl=243 time=1341.5 ms
520 bytes from 204.123.2.2: icmp_seq=107 ttl=243 time=820.9 ms
520 bytes from 204.123.2.2: icmp_seq=108 ttl=243 time=530.0 ms
520 bytes from 204.123.2.2: icmp_seq=109 ttl=243 time=703.2 ms
520 bytes from 204.123.2.2: icmp_seq=110 ttl=243 time=574.6 ms
520 bytes from 204.123.2.2: icmp_seq=112 ttl=243 time=619.7 ms
520 bytes from 204.123.2.2: icmp_seq=113 ttl=243 time=587.4 ms
520 bytes from 204.123.2.2: icmp_seq=114 ttl=243 time=904.8 ms
520 bytes from 204.123.2.2: icmp_seq=115 ttl=243 time=589.2 ms
520 bytes from 204.123.2.2: icmp_seq=116 ttl=243 time=551.1 ms
520 bytes from 204.123.2.2: icmp_seq=117 ttl=243 time=612.3 ms
520 bytes from 204.123.2.2: icmp_seq=118 ttl=243 time=565.6 ms
520 bytes from 204.123.2.2: icmp_seq=119 ttl=243 time=882.5 ms
520 bytes from 204.123.2.2: icmp_seq=120 ttl=243 time=683.1 ms
520 bytes from 204.123.2.2: icmp_seq=121 ttl=243 time=898.0 ms
520 bytes from 204.123.2.2: icmp_seq=122 ttl=243 time=787.2 ms
520 bytes from 204.123.2.2: icmp_seq=123 ttl=243 time=494.8 ms
520 bytes from 204.123.2.2: icmp_seq=124 ttl=243 time=954.6 ms
520 bytes from 204.123.2.2: icmp_seq=125 ttl=243 time=638.3 ms
520 bytes from 204.123.2.2: icmp_seq=126 ttl=243 time=552.6 ms
520 bytes from 204.123.2.2: icmp_seq=127 ttl=243 time=648.2 ms
520 bytes from 204.123.2.2: icmp_seq=128 ttl=243 time=602.7 ms
520 bytes from 204.123.2.2: icmp_seq=129 ttl=243 time=675.3 ms
520 bytes from 204.123.2.2: icmp_seq=130 ttl=243 time=827.2 ms
520 bytes from 204.123.2.2: icmp_seq=131 ttl=243 time=665.4 ms
520 bytes from 204.123.2.2: icmp_seq=132 ttl=243 time=561.3 ms
520 bytes from 204.123.2.2: icmp_seq=133 ttl=243 time=508.0 ms
520 bytes from 204.123.2.2: icmp_seq=134 ttl=243 time=650.3 ms
520 bytes from 204.123.2.2: icmp_seq=135 ttl=243 time=602.7 ms
520 bytes from 204.123.2.2: icmp_seq=136 ttl=243 time=551.7 ms
520 bytes from 204.123.2.2: icmp_seq=137 ttl=243 time=1550.5 ms
520 bytes from 204.123.2.2: icmp_seq=139 ttl=243 time=548.0 ms
520 bytes from 204.123.2.2: icmp_seq=140 ttl=243 time=703.7 ms
520 bytes from 204.123.2.2: icmp_seq=141 ttl=243 time=678.5 ms
520 bytes from 204.123.2.2: icmp_seq=142 ttl=243 time=629.7 ms
520 bytes from 204.123.2.2: icmp_seq=143 ttl=243 time=698.8 ms
520 bytes from 204.123.2.2: icmp_seq=144 ttl=243 time=912.3 ms
520 bytes from 204.123.2.2: icmp_seq=145 ttl=243 time=710.9 ms
520 bytes from 204.123.2.2: icmp_seq=146 ttl=243 time=622.9 ms
520 bytes from 204.123.2.2: icmp_seq=147 ttl=243 time=610.0 ms
520 bytes from 204.123.2.2: icmp_seq=148 ttl=243 time=627.7 ms
520 bytes from 204.123.2.2: icmp_seq=149 ttl=243 time=640.3 ms
520 bytes from 204.123.2.2: icmp_seq=150 ttl=243 time=657.7 ms
520 bytes from 204.123.2.2: icmp_seq=151 ttl=243 time=557.2 ms
520 bytes from 204.123.2.2: icmp_seq=152 ttl=243 time=630.2 ms
520 bytes from 204.123.2.2: icmp_seq=153 ttl=243 time=841.2 ms
520 bytes from 204.123.2.2: icmp_seq=154 ttl=243 time=1127.8 ms
520 bytes from 204.123.2.2: icmp_seq=155 ttl=243 time=659.3 ms
520 bytes from 204.123.2.2: icmp_seq=156 ttl=243 time=616.8 ms
520 bytes from 204.123.2.2: icmp_seq=157 ttl=243 time=593.9 ms
520 bytes from 204.123.2.2: icmp_seq=160 ttl=243 time=635.4 ms
520 bytes from 204.123.2.2: icmp_seq=161 ttl=243 time=557.7 ms
520 bytes from 204.123.2.2: icmp_seq=162 ttl=243 time=876.7 ms
520 bytes from 204.123.2.2: icmp_seq=163 ttl=243 time=736.8 ms
520 bytes from 204.123.2.2: icmp_seq=164 ttl=243 time=727.4 ms
520 bytes from 204.123.2.2: icmp_seq=165 ttl=243 time=828.0 ms
520 bytes from 204.123.2.2: icmp_seq=166 ttl=243 time=756.0 ms
520 bytes from 204.123.2.2: icmp_seq=167 ttl=243 time=807.1 ms
520 bytes from 204.123.2.2: icmp_seq=168 ttl=243 time=603.5 ms
520 bytes from 204.123.2.2: icmp_seq=169 ttl=243 time=657.4 ms
520 bytes from 204.123.2.2: icmp_seq=170 ttl=243 time=702.8 ms
520 bytes from 204.123.2.2: icmp_seq=171 ttl=243 time=699.0 ms
520 bytes from 204.123.2.2: icmp_seq=172 ttl=243 time=597.0 ms
520 bytes from 204.123.2.2: icmp_seq=173 ttl=243 time=549.9 ms
520 bytes from 204.123.2.2: icmp_seq=174 ttl=243 time=1113.7 ms
520 bytes from 204.123.2.2: icmp_seq=175 ttl=243 time=863.0 ms
520 bytes from 204.123.2.2: icmp_seq=176 ttl=243 time=599.7 ms
520 bytes from 204.123.2.2: icmp_seq=177 ttl=243 time=607.2 ms
520 bytes from 204.123.2.2: icmp_seq=178 ttl=243 time=616.8 ms
520 bytes from 204.123.2.2: icmp_seq=179 ttl=243 time=644.7 ms
520 bytes from 204.123.2.2: icmp_seq=180 ttl=243 time=594.7 ms
520 bytes from 204.123.2.2: icmp_seq=181 ttl=243 time=617.8 ms
520 bytes from 204.123.2.2: icmp_seq=182 ttl=243 time=705.6 ms
520 bytes from 204.123.2.2: icmp_seq=183 ttl=243 time=610.2 ms
520 bytes from 204.123.2.2: icmp_seq=184 ttl=243 time=554.5 ms
520 bytes from 204.123.2.2: icmp_seq=185 ttl=243 time=622.9 ms
520 bytes from 204.123.2.2: icmp_seq=186 ttl=243 time=630.7 ms
520 bytes from 204.123.2.2: icmp_seq=187 ttl=243 time=708.4 ms
520 bytes from 204.123.2.2: icmp_seq=188 ttl=243 time=562.9 ms
520 bytes from 204.123.2.2: icmp_seq=189 ttl=243 time=556.8 ms
520 bytes from 204.123.2.2: icmp_seq=190 ttl=243 time=547.6 ms
520 bytes from 204.123.2.2: icmp_seq=191 ttl=243 time=617.1 ms
520 bytes from 204.123.2.2: icmp_seq=192 ttl=243 time=983.9 ms
520 bytes from 204.123.2.2: icmp_seq=195 ttl=243 time=642.2 ms
520 bytes from 204.123.2.2: icmp_seq=196 ttl=243 time=603.5 ms
520 bytes from 204.123.2.2: icmp_seq=197 ttl=243 time=557.6 ms
520 bytes from 204.123.2.2: icmp_seq=199 ttl=243 time=638.4 ms

--- gatekeeper.dec.com ping statistics ---
200 packets transmitted, 186 packets received, 7% packet loss
round-trip min/avg/max = 491.7/740.5/2123.7 ms
