%!PS-Adobe-2.0 EPSF-2.0
%%Creator: gnuplot
%%DocumentFonts: Helvetica
%%BoundingBox: 50 50 410 302
%%EndComments
/gnudict 40 dict def
gnudict begin
/Color false def
/Solid false def
/gnulinewidth 5.000 def
/vshift -46 def
/dl {10 mul} def
/hpt 31.5 def
/vpt 31.5 def
/M {moveto} bind def
/L {lineto} bind def
/R {rmoveto} bind def
/V {rlineto} bind def
/vpt2 vpt 2 mul def
/hpt2 hpt 2 mul def
/Lshow { currentpoint stroke M
  0 vshift R show } def
/Rshow { currentpoint stroke M
  dup stringwidth pop neg vshift R show } def
/Cshow { currentpoint stroke M
  dup stringwidth pop -2 div vshift R show } def
/DL { Color {setrgbcolor Solid {pop []} if 0 setdash }
 {pop pop pop Solid {pop []} if 0 setdash} ifelse } def
/BL { stroke gnulinewidth 2 mul setlinewidth } def
/AL { stroke gnulinewidth 2 div setlinewidth } def
/PL { stroke gnulinewidth setlinewidth } def
/LTb { BL [] 0 0 0 DL } def
/LTa { AL [1 dl 2 dl] 0 setdash 0 0 0 setrgbcolor } def
/LT0 { PL [] 0 1 0 DL } def
/LT1 { PL [4 dl 2 dl] 0 0 1 DL } def
/LT2 { PL [2 dl 3 dl] 1 0 0 DL } def
/LT3 { PL [1 dl 1.5 dl] 1 0 1 DL } def
/LT4 { PL [5 dl 2 dl 1 dl 2 dl] 0 1 1 DL } def
/LT5 { PL [4 dl 3 dl 1 dl 3 dl] 1 1 0 DL } def
/LT6 { PL [2 dl 2 dl 2 dl 4 dl] 0 0 0 DL } def
/LT7 { PL [2 dl 2 dl 2 dl 2 dl 2 dl 4 dl] 1 0.3 0 DL } def
/LT8 { PL [2 dl 2 dl 2 dl 2 dl 2 dl 2 dl 2 dl 4 dl] 0.5 0.5 0.5 DL } def
/P { stroke [] 0 setdash
  currentlinewidth 2 div sub M
  0 currentlinewidth V stroke } def
/D { stroke [] 0 setdash 2 copy vpt add M
  hpt neg vpt neg V hpt vpt neg V
  hpt vpt V hpt neg vpt V closepath stroke
  P } def
/A { stroke [] 0 setdash vpt sub M 0 vpt2 V
  currentpoint stroke M
  hpt neg vpt neg R hpt2 0 V stroke
  } def
/B { stroke [] 0 setdash 2 copy exch hpt sub exch vpt add M
  0 vpt2 neg V hpt2 0 V 0 vpt2 V
  hpt2 neg 0 V closepath stroke
  P } def
/C { stroke [] 0 setdash exch hpt sub exch vpt add M
  hpt2 vpt2 neg V currentpoint stroke M
  hpt2 neg 0 R hpt2 vpt2 V stroke } def
/T { stroke [] 0 setdash 2 copy vpt 1.12 mul add M
  hpt neg vpt -1.62 mul V
  hpt 2 mul 0 V
  hpt neg vpt 1.62 mul V closepath stroke
  P  } def
/S { 2 copy A C} def
end
%%EndProlog
/orig_findfont /findfont load def
/MakeISOLatin1 {
  dup orig_findfont
  dup length dict begin
    { 1 index /FID ne {def} {pop pop} ifelse } forall
    /Encoding ISOLatin1Encoding 256 array copy def
    currentdict
  end
  definefont pop
} def

/findfont { dup dup MakeISOLatin1 orig_findfont } def
gnudict begin
gsave
50 50 translate
0.050 0.050 scale
0 setgray
/Helvetica findfont 140 scalefont setfont
newpath
LTa
840 351 M
0 4618 V
LTb
840 351 M
63 0 V
6066 0 R
-63 0 V
756 351 M
(1.5e-05) Rshow
840 1011 M
63 0 V
6066 0 R
-63 0 V
-6150 0 R
(2e-05) Rshow
840 1670 M
63 0 V
6066 0 R
-63 0 V
-6150 0 R
(2.5e-05) Rshow
840 2330 M
63 0 V
6066 0 R
-63 0 V
-6150 0 R
(3e-05) Rshow
840 2990 M
63 0 V
6066 0 R
-63 0 V
-6150 0 R
(3.5e-05) Rshow
840 3650 M
63 0 V
6066 0 R
-63 0 V
-6150 0 R
(4e-05) Rshow
840 4309 M
63 0 V
6066 0 R
-63 0 V
-6150 0 R
(4.5e-05) Rshow
840 4969 M
63 0 V
6066 0 R
-63 0 V
-6150 0 R
(5e-05) Rshow
840 351 M
0 63 V
0 4555 R
0 -63 V
840 211 M
(0) Cshow
1453 351 M
0 63 V
0 4555 R
0 -63 V
0 -4695 R
(2e-05) Cshow
2066 351 M
0 63 V
0 4555 R
0 -63 V
0 -4695 R
(4e-05) Cshow
2679 351 M
0 63 V
0 4555 R
0 -63 V
0 -4695 R
(6e-05) Cshow
3292 351 M
0 63 V
0 4555 R
0 -63 V
0 -4695 R
(8e-05) Cshow
3905 351 M
0 63 V
0 4555 R
0 -63 V
0 -4695 R
(0.0001) Cshow
4517 351 M
0 63 V
0 4555 R
0 -63 V
0 -4695 R
(0.00012) Cshow
5130 351 M
0 63 V
0 4555 R
0 -63 V
0 -4695 R
(0.00014) Cshow
5743 351 M
0 63 V
0 4555 R
0 -63 V
0 -4695 R
(0.00016) Cshow
6356 351 M
0 63 V
0 4555 R
0 -63 V
0 -4695 R
(0.00018) Cshow
6969 351 M
0 63 V
0 4555 R
0 -63 V
0 -4695 R
(0.0002) Cshow
840 351 M
6129 0 V
0 4618 V
-6129 0 V
840 351 L
140 2660 M
currentpoint gsave translate 90 rotate 0 0 M
(Hydronium-kons., mol/L) Cshow
grestore
3904 71 M
(Sulfat-kons., mol/L) Cshow
LT0
3292 4705 M
(Res. A) Rshow
3376 4705 M
252 0 V
1158 720 M
12 21 V
11 22 V
12 21 V
12 21 V
11 21 V
12 20 V
12 21 V
11 20 V
12 20 V
12 20 V
11 20 V
12 19 V
11 20 V
12 19 V
12 19 V
11 19 V
12 19 V
12 19 V
11 18 V
12 18 V
12 19 V
11 18 V
12 18 V
12 17 V
11 18 V
12 17 V
12 18 V
11 17 V
12 17 V
11 17 V
12 17 V
12 17 V
11 16 V
12 17 V
12 16 V
11 16 V
12 16 V
12 16 V
11 16 V
12 16 V
12 15 V
11 16 V
12 15 V
11 16 V
12 15 V
12 15 V
11 15 V
12 15 V
12 15 V
11 14 V
12 15 V
12 15 V
11 14 V
12 14 V
12 15 V
11 14 V
12 14 V
12 14 V
11 14 V
12 13 V
11 14 V
12 14 V
12 13 V
11 14 V
12 13 V
12 13 V
11 14 V
12 13 V
12 13 V
11 13 V
12 13 V
12 13 V
11 12 V
12 13 V
11 13 V
12 12 V
12 13 V
11 12 V
12 12 V
12 13 V
11 12 V
12 12 V
12 12 V
11 12 V
12 12 V
12 12 V
11 12 V
12 12 V
12 11 V
11 12 V
12 12 V
11 11 V
12 12 V
12 11 V
11 11 V
12 12 V
12 11 V
11 11 V
12 11 V
12 12 V
11 11 V
12 11 V
12 11 V
11 10 V
12 11 V
11 11 V
12 11 V
12 11 V
11 10 V
12 11 V
12 10 V
11 11 V
12 10 V
12 11 V
11 10 V
12 11 V
12 10 V
11 10 V
12 10 V
12 10 V
11 11 V
12 10 V
11 10 V
12 10 V
12 10 V
11 9 V
12 10 V
12 10 V
11 10 V
12 10 V
12 9 V
11 10 V
12 10 V
12 9 V
11 10 V
12 9 V
11 10 V
12 9 V
12 10 V
11 9 V
12 9 V
12 10 V
11 9 V
12 9 V
12 9 V
11 10 V
12 9 V
12 9 V
11 9 V
12 9 V
12 9 V
11 9 V
12 9 V
11 9 V
12 9 V
12 9 V
11 8 V
12 9 V
12 9 V
11 9 V
12 8 V
12 9 V
11 9 V
12 8 V
12 9 V
11 8 V
12 9 V
11 8 V
12 9 V
12 8 V
11 9 V
12 8 V
12 9 V
11 8 V
12 8 V
12 8 V
11 9 V
12 8 V
12 8 V
11 8 V
12 8 V
12 9 V
11 8 V
12 8 V
11 8 V
12 8 V
12 8 V
11 8 V
12 8 V
12 8 V
11 8 V
12 7 V
12 8 V
11 8 V
12 8 V
12 8 V
11 7 V
12 8 V
11 8 V
12 8 V
12 7 V
11 8 V
12 8 V
12 7 V
11 8 V
12 7 V
12 8 V
11 7 V
12 8 V
12 7 V
11 8 V
12 7 V
12 8 V
11 7 V
12 8 V
11 7 V
12 7 V
12 8 V
11 7 V
12 7 V
12 7 V
11 8 V
12 7 V
12 7 V
11 7 V
12 7 V
12 8 V
11 7 V
12 7 V
11 7 V
12 7 V
12 7 V
11 7 V
12 7 V
12 7 V
11 7 V
12 7 V
12 7 V
11 7 V
12 7 V
12 7 V
11 7 V
12 7 V
11 6 V
12 7 V
12 7 V
11 7 V
12 7 V
12 6 V
11 7 V
12 7 V
12 7 V
11 6 V
12 7 V
12 7 V
11 6 V
12 7 V
12 7 V
11 6 V
12 7 V
11 6 V
12 7 V
12 7 V
11 6 V
12 7 V
12 6 V
11 7 V
12 6 V
12 7 V
11 6 V
12 6 V
12 7 V
11 6 V
12 7 V
11 6 V
12 6 V
12 7 V
11 6 V
12 6 V
12 7 V
11 6 V
12 6 V
12 7 V
11 6 V
12 6 V
12 6 V
11 7 V
12 6 V
12 6 V
11 6 V
12 6 V
11 6 V
12 7 V
12 6 V
11 6 V
12 6 V
12 6 V
11 6 V
12 6 V
12 6 V
11 6 V
12 6 V
12 6 V
11 6 V
12 6 V
11 6 V
12 6 V
12 6 V
11 6 V
12 6 V
12 6 V
11 6 V
12 6 V
12 6 V
11 5 V
12 6 V
12 6 V
11 6 V
12 6 V
12 6 V
11 5 V
12 6 V
11 6 V
12 6 V
12 5 V
11 6 V
12 6 V
12 6 V
11 5 V
12 6 V
12 6 V
11 5 V
12 6 V
12 6 V
11 5 V
12 6 V
11 6 V
12 5 V
12 6 V
11 6 V
12 5 V
12 6 V
11 5 V
12 6 V
12 5 V
11 6 V
12 5 V
12 6 V
11 6 V
12 5 V
12 5 V
11 6 V
12 5 V
11 6 V
12 5 V
12 6 V
11 5 V
12 6 V
12 5 V
11 5 V
12 6 V
12 5 V
11 6 V
12 5 V
12 5 V
11 6 V
12 5 V
11 5 V
12 6 V
12 5 V
11 5 V
12 6 V
12 5 V
11 5 V
12 5 V
12 6 V
11 5 V
12 5 V
12 5 V
11 6 V
12 5 V
12 5 V
11 5 V
12 5 V
11 6 V
12 5 V
12 5 V
11 5 V
12 5 V
12 5 V
11 6 V
12 5 V
12 5 V
11 5 V
12 5 V
12 5 V
11 5 V
currentpoint stroke M
12 5 V
11 5 V
12 5 V
12 5 V
11 5 V
12 5 V
12 5 V
11 5 V
12 5 V
12 5 V
11 5 V
12 5 V
12 5 V
11 5 V
12 5 V
12 5 V
11 5 V
12 5 V
11 5 V
12 5 V
12 5 V
11 5 V
12 5 V
12 5 V
11 5 V
12 4 V
12 5 V
11 5 V
12 5 V
12 5 V
11 5 V
12 5 V
11 4 V
12 5 V
12 5 V
11 5 V
12 5 V
12 5 V
11 4 V
12 5 V
12 5 V
11 5 V
12 4 V
12 5 V
11 5 V
12 5 V
12 4 V
11 5 V
12 5 V
11 5 V
12 4 V
12 5 V
11 5 V
12 4 V
12 5 V
11 5 V
12 4 V
12 5 V
11 5 V
12 4 V
12 5 V
11 5 V
12 4 V
11 5 V
12 4 V
12 5 V
11 5 V
12 4 V
12 5 V
11 4 V
12 5 V
12 5 V
11 4 V
12 5 V
12 4 V
11 5 V
12 4 V
12 5 V
11 4 V
12 5 V
11 4 V
12 5 V
12 4 V
11 5 V
12 4 V
12 5 V
11 4 V
12 5 V
12 4 V
11 5 V
12 4 V
12 5 V
11 4 V
12 5 V
11 4 V
12 4 V
12 5 V
11 4 V
12 5 V
12 4 V
11 5 V
12 4 V
LT1
3292 4565 M
(Res. B) Rshow
3376 4565 M
252 0 V
1158 695 M
12 21 V
11 21 V
12 21 V
12 21 V
11 20 V
12 21 V
12 20 V
11 20 V
12 20 V
12 19 V
11 20 V
12 19 V
11 20 V
12 19 V
12 19 V
11 18 V
12 19 V
12 19 V
11 18 V
12 18 V
12 18 V
11 18 V
12 18 V
12 17 V
11 18 V
12 17 V
12 18 V
11 17 V
12 17 V
11 16 V
12 17 V
12 17 V
11 16 V
12 16 V
12 17 V
11 16 V
12 16 V
12 16 V
11 15 V
12 16 V
12 16 V
11 15 V
12 15 V
11 16 V
12 15 V
12 15 V
11 15 V
12 14 V
12 15 V
11 15 V
12 14 V
12 15 V
11 14 V
12 14 V
12 14 V
11 15 V
12 14 V
12 13 V
11 14 V
12 14 V
11 14 V
12 13 V
12 14 V
11 13 V
12 13 V
12 14 V
11 13 V
12 13 V
12 13 V
11 13 V
12 13 V
12 12 V
11 13 V
12 13 V
11 12 V
12 13 V
12 12 V
11 13 V
12 12 V
12 12 V
11 12 V
12 12 V
12 12 V
11 12 V
12 12 V
12 12 V
11 12 V
12 12 V
12 11 V
11 12 V
12 12 V
11 11 V
12 12 V
12 11 V
11 11 V
12 12 V
12 11 V
11 11 V
12 11 V
12 11 V
11 11 V
12 11 V
12 11 V
11 11 V
12 11 V
11 11 V
12 10 V
12 11 V
11 11 V
12 10 V
12 11 V
11 10 V
12 11 V
12 10 V
11 10 V
12 11 V
12 10 V
11 10 V
12 10 V
12 10 V
11 10 V
12 10 V
11 10 V
12 10 V
12 10 V
11 10 V
12 10 V
12 10 V
11 10 V
12 9 V
12 10 V
11 10 V
12 9 V
12 10 V
11 9 V
12 10 V
11 9 V
12 10 V
12 9 V
11 10 V
12 9 V
12 9 V
11 9 V
12 10 V
12 9 V
11 9 V
12 9 V
12 9 V
11 9 V
12 9 V
12 9 V
11 9 V
12 9 V
11 9 V
12 9 V
12 9 V
11 8 V
12 9 V
12 9 V
11 9 V
12 8 V
12 9 V
11 9 V
12 8 V
12 9 V
11 8 V
12 9 V
11 8 V
12 9 V
12 8 V
11 9 V
12 8 V
12 8 V
11 9 V
12 8 V
12 8 V
11 8 V
12 9 V
12 8 V
11 8 V
12 8 V
12 8 V
11 8 V
12 8 V
11 8 V
12 8 V
12 8 V
11 8 V
12 8 V
12 8 V
11 8 V
12 8 V
12 8 V
11 8 V
12 7 V
12 8 V
11 8 V
12 8 V
11 7 V
12 8 V
12 8 V
11 7 V
12 8 V
12 8 V
11 7 V
12 8 V
12 7 V
11 8 V
12 7 V
12 8 V
11 7 V
12 8 V
12 7 V
11 7 V
12 8 V
11 7 V
12 7 V
12 8 V
11 7 V
12 7 V
12 8 V
11 7 V
12 7 V
12 7 V
11 7 V
12 8 V
12 7 V
11 7 V
12 7 V
11 7 V
12 7 V
12 7 V
11 7 V
12 7 V
12 7 V
11 7 V
12 7 V
12 7 V
11 7 V
12 7 V
12 7 V
11 7 V
12 7 V
11 6 V
12 7 V
12 7 V
11 7 V
12 7 V
12 6 V
11 7 V
12 7 V
12 7 V
11 6 V
12 7 V
12 7 V
11 6 V
12 7 V
12 6 V
11 7 V
12 7 V
11 6 V
12 7 V
12 6 V
11 7 V
12 6 V
12 7 V
11 6 V
12 7 V
12 6 V
11 7 V
12 6 V
12 7 V
11 6 V
12 6 V
11 7 V
12 6 V
12 6 V
11 7 V
12 6 V
12 6 V
11 7 V
12 6 V
12 6 V
11 6 V
12 7 V
12 6 V
11 6 V
12 6 V
12 6 V
11 7 V
12 6 V
11 6 V
12 6 V
12 6 V
11 6 V
12 6 V
12 6 V
11 6 V
12 7 V
12 6 V
11 6 V
12 6 V
12 6 V
11 6 V
12 6 V
11 6 V
12 6 V
12 5 V
11 6 V
12 6 V
12 6 V
11 6 V
12 6 V
12 6 V
11 6 V
12 6 V
12 5 V
11 6 V
12 6 V
12 6 V
11 6 V
12 5 V
11 6 V
12 6 V
12 6 V
11 5 V
12 6 V
12 6 V
11 6 V
12 5 V
12 6 V
11 6 V
12 5 V
12 6 V
11 6 V
12 5 V
11 6 V
12 6 V
12 5 V
11 6 V
12 5 V
12 6 V
11 5 V
12 6 V
12 6 V
11 5 V
12 6 V
12 5 V
11 6 V
12 5 V
12 6 V
11 5 V
12 6 V
11 5 V
12 5 V
12 6 V
11 5 V
12 6 V
12 5 V
11 6 V
12 5 V
12 5 V
11 6 V
12 5 V
12 5 V
11 6 V
12 5 V
11 5 V
12 6 V
12 5 V
11 5 V
12 6 V
12 5 V
11 5 V
12 5 V
12 6 V
11 5 V
12 5 V
12 5 V
11 6 V
12 5 V
12 5 V
11 5 V
12 5 V
11 6 V
12 5 V
12 5 V
11 5 V
12 5 V
12 5 V
11 5 V
12 6 V
12 5 V
11 5 V
12 5 V
12 5 V
11 5 V
currentpoint stroke M
12 5 V
11 5 V
12 5 V
12 5 V
11 5 V
12 5 V
12 5 V
11 5 V
12 5 V
12 5 V
11 5 V
12 5 V
12 5 V
11 5 V
12 5 V
12 5 V
11 5 V
12 5 V
11 5 V
12 5 V
12 5 V
11 5 V
12 5 V
12 5 V
11 4 V
12 5 V
12 5 V
11 5 V
12 5 V
12 5 V
11 5 V
12 4 V
11 5 V
12 5 V
12 5 V
11 5 V
12 4 V
12 5 V
11 5 V
12 5 V
12 5 V
11 4 V
12 5 V
12 5 V
11 5 V
12 4 V
12 5 V
11 5 V
12 4 V
11 5 V
12 5 V
12 5 V
11 4 V
12 5 V
12 5 V
11 4 V
12 5 V
12 5 V
11 4 V
12 5 V
12 5 V
11 4 V
12 5 V
11 4 V
12 5 V
12 5 V
11 4 V
12 5 V
12 4 V
11 5 V
12 5 V
12 4 V
11 5 V
12 4 V
12 5 V
11 4 V
12 5 V
12 4 V
11 5 V
12 4 V
11 5 V
12 5 V
12 4 V
11 5 V
12 4 V
12 4 V
11 5 V
12 4 V
12 5 V
11 4 V
12 5 V
12 4 V
11 5 V
12 4 V
11 5 V
12 4 V
12 4 V
11 5 V
12 4 V
12 5 V
11 4 V
12 4 V
stroke
grestore
end
showpage
%%Trailer
