\select@language {norsk}
\contentsline {figure}{\numberline {1}{\ignorespaces Konsentrasjonen av $Al^{3+}$ i forhold til konsentrasjonen av sulfation}}{5}
\contentsline {figure}{\numberline {2}{\ignorespaces Konsentrasjon av $H^{+}$}}{6}
\contentsline {figure}{\numberline {3}{\ignorespaces Konsentrasjonen av $HCO_{3}^{-}$}}{6}
\contentsline {figure}{\numberline {4}{\ignorespaces Konsentrasjonen av $Ca^{2+}$}}{7}
\contentsline {figure}{\numberline {5}{\ignorespaces Graf over nedb\IeC {\o }r}}{10}
\contentsline {figure}{\numberline {6}{\ignorespaces Graf over temperatur}}{11}
\contentsline {figure}{\numberline {7}{\ignorespaces Simulert vannstand i reservoar A, h=0,05}}{16}
\contentsline {figure}{\numberline {8}{\ignorespaces Simulert vannstand i reservoar B, h=0,05}}{17}
\contentsline {figure}{\numberline {9}{\ignorespaces Simulert og observert avrenning til bekk, h=0,05}}{17}
\contentsline {figure}{\numberline {10}{\ignorespaces $[SO_4^{2+}]$ i avrenning til bekk, h=0,05}}{18}
\contentsline {figure}{\numberline {11}{\ignorespaces $[H^+]$ i reservoar A, h=0,05}}{19}
\contentsline {figure}{\numberline {12}{\ignorespaces $[H^+]$ i reservoar B, h=0,05}}{20}
\contentsline {figure}{\numberline {13}{\ignorespaces $[Ca^{2+}]$ i avrenning til bekk, h=0,05}}{20}
\contentsline {figure}{\numberline {14}{\ignorespaces Justert $[H^+]$ i avrenning til bekk, h=0,05}}{21}
\contentsline {figure}{\numberline {15}{\ignorespaces Justert $[Al^{3+}]$ i avrenning til bekk, h=0,05}}{21}
\contentsline {figure}{\numberline {16}{\ignorespaces Justert $[HCO_3^-]$ i avrenning til bekk, h=0,05}}{22}
\contentsline {figure}{\numberline {17}{\ignorespaces Differansen mellom observert og beregnet avrenning og observert avrenning, og linne\IeC {\ae }r sammenheng mellom disse, h=0,05}}{24}
\contentsline {figure}{\numberline {18}{\ignorespaces $[H^+]$ i avrenning med dobbel, normal og halv $[SO_4^{2+}]$, h=0,05}}{25}
