\select@language {norsk}
\contentsline {figure}{\numberline {1}{\ignorespaces Konsentrasjonen av $Al^{3+}$ i forhold til konsentrasjonen av sulfation}}{4}
\contentsline {figure}{\numberline {2}{\ignorespaces Konsentrasjon av $H^{+}$}}{4}
\contentsline {figure}{\numberline {3}{\ignorespaces Konsentrasjonen av $HCO_{3}^{-}$}}{5}
\contentsline {figure}{\numberline {4}{\ignorespaces Konsentrasjonen av $Ca^{2+}$}}{5}
\contentsline {figure}{\numberline {5}{\ignorespaces Graf over nedb\IeC {\o }r}}{10}
\contentsline {figure}{\numberline {6}{\ignorespaces Graf over temperatur}}{11}
